{
    "name": "CryptoProde #16",
    "description": "This is the Cerro ticket that allows you to play in the Copa Libertador round of 16",
    "image": "https://ipfs.io/ipfs/Qmbey8gJCqACB19Qk193AurFswoc7iRB1FTefz5gYUdayh",
    "attributes": [
        {
            "trait_type": "Libertadors Cups",
            "value": 0,
            "max_value": 100
        },
        {
            "trait_type": "Fundation",
            "value": 1912,
            "max_value": 2000
        }
    ]
}