{
    "name": "CryptoProde #14",
    "description": "This is the Emelecs ticket that allows you to play in the Copa Libertador round of 16",
    "image": "https://ipfs.io/ipfs/QmQSkw4V68c9aMa26j493vuMZjLa9BiNU9K6VudduhjvKK",
    "attributes": [
        {
            "trait_type": "Libertadors Cups",
            "value": 0,
            "max_value": 100
        },
        {
            "trait_type": "Fundation",
            "value": 1912,
            "max_value": 2000
        }
    ]
}