{
    "name": "CryptoProde #9",
    "description": "This is the Matador ticket that allows you to play in the Copa Libertador round of 16",
    "image": "https://ipfs.io/ipfs/QmWUZzRCMRQ4z8dmBvn4BQkRTtjvQhwXo3xdZdpriqgsLC",
    "attributes": [
        {
            "trait_type": "Libertadors Cups",
            "value": 0,
            "max_value": 100
        },
        {
            "trait_type": "Fundation",
            "value": 1913,
            "max_value": 2000
        }
    ]
}